0 info it worked if it ends with ok
1 verbose cli [ 'C:\\Program Files\\nodejs\\node.exe',
1 verbose cli   'C:\\Program Files\\nodejs\\node_modules\\npm\\bin\\npm-cli.js',
1 verbose cli   'run',
1 verbose cli   'build:watch' ]
2 info using npm@3.10.10
3 info using node@v6.10.0
4 verbose run-script [ 'prebuild:watch', 'build:watch', 'postbuild:watch' ]
5 info lifecycle king-of-the-hill@1.0.0~prebuild:watch: king-of-the-hill@1.0.0
6 silly lifecycle king-of-the-hill@1.0.0~prebuild:watch: no script for prebuild:watch, continuing
7 info lifecycle king-of-the-hill@1.0.0~build:watch: king-of-the-hill@1.0.0
8 verbose lifecycle king-of-the-hill@1.0.0~build:watch: unsafe-perm in lifecycle true
9 verbose lifecycle king-of-the-hill@1.0.0~build:watch: PATH: C:\Program Files\nodejs\node_modules\npm\bin\node-gyp-bin;C:\Users\Michael\Documents\git\KingOfTheHill\KingOftheHill.Web\node_modules\.bin;C:\Program Files\nodejs\node_modules\npm\bin\node-gyp-bin;C:\Users\Michael\Documents\git\KingOfTheHill\KingOftheHill.Web\node_modules\.bin;.\node_modules\.bin;C:\Program Files (x86)\Microsoft Visual Studio 14.0\Common7\IDE\CommonExtensions\Microsoft\TeamFoundation\Team Explorer\NativeBinaries\x86;C:\ProgramData\Oracle\Java\javapath;C:\Program Files\Common Files\Microsoft Shared\Windows Live;C:\Program Files (x86)\Common Files\Microsoft Shared\Windows Live;c:\Program Files (x86)\AMD APP\bin\x86_64;c:\Program Files (x86)\AMD APP\bin\x86;C:\Windows\system32;C:\Windows;C:\Windows\System32\Wbem;C:\Windows\System32\WindowsPowerShell\v1.0\;c:\Program Files (x86)\ATI Technologies\ATI.ACE\Core-Static;C:\Program Files (x86)\Windows Live\Shared;C:\Program Files (x86)\Microsoft ASP.NET\ASP.NET Web Pages\v1.0\;C:\Program Files\Microsoft SQL Server\110\DTS\Binn\;C:\Program Files (x86)\Microsoft SQL Server\110\Tools\Binn\;C:\Program Files\Microsoft SQL Server\110\Tools\Binn\;C:\Program Files (x86)\Microsoft SQL Server\110\Tools\Binn\ManagementStudio\;C:\Program Files (x86)\Microsoft Visual Studio 10.0\Common7\IDE\PrivateAssemblies\;C:\Program Files (x86)\Microsoft SQL Server\110\DTS\Binn\;C:\Program Files (x86)\GtkSharp\2.12\bin;C:\Program Files\TortoiseSVN\bin;C:\Program Files (x86)\VisualSVN\bin;C:\WINDOWS\system32;C:\WINDOWS;C:\WINDOWS\System32\Wbem;C:\WINDOWS\System32\WindowsPowerShell\v1.0\;C:\Program Files (x86)\ATI Technologies\ATI.ACE\Core-Static;C:\Program Files (x86)\Skype\Phone\;C:\WINDOWS\system32\config\systemprofile\.dnx\bin;C:\Program Files\Microsoft DNX\Dnvm\;C:\Program Files\Microsoft SQL Server\120\Tools\Binn\;C:\Program Files\Microsoft SQL Server\130\Tools\Binn\;C:\Program Files\Microsoft\Web Platform Installer\;C:\Program Files\Git\cmd;C:\Program Files\nodejs\;C:\Program Files (x86)\Windows Kits\10\Windows Performance Toolkit\;C:\ProgramData\chocolatey\bin;C:\Program Files (x86)\Microsoft VS Code\bin;C:\Users\Michael\AppData\Local\Microsoft\WindowsApps;C:\Users\Michael\AppData\Roaming\npm;C:\Program Files (x86)\AVG\Av;C:\Users\Michael\Documents\git\KingOfTheHill\packages\Microsoft.ApplicationInsights.WindowsServer.2.2.0\tools;C:\Users\Michael\Documents\git\KingOfTheHill\packages\Microsoft.Net.Compilers.1.0.0\tools;C:\Users\Michael\Documents\git\KingOfTheHill\packages\Microsoft.CodeDom.Providers.DotNetCompilerPlatform.1.0.0\tools;C:\Users\Michael\Documents\git\KingOfTheHill\packages\Microsoft.ApplicationInsights.WindowsServer.2.2.0\tools;C:\Users\Michael\Documents\git\KingOfTheHill\packages\Microsoft.Net.Compilers.1.0.0\tools;C:\Users\Michael\Documents\git\KingOfTheHill\packages\Microsoft.CodeDom.Providers.DotNetCompilerPlatform.1.0.0\tools;C:\Program Files (x86)\Microsoft Visual Studio 14.0\Common7\IDE\Extensions\Microsoft\Web Tools\External
10 verbose lifecycle king-of-the-hill@1.0.0~build:watch: CWD: C:\Users\Michael\Documents\git\KingOfTheHill\KingOftheHill.Web
11 silly lifecycle king-of-the-hill@1.0.0~build:watch: Args: [ '/d /s /c', 'tsc -p src/ -w' ]
12 silly lifecycle king-of-the-hill@1.0.0~build:watch: Returned: code: 1  signal: null
13 info lifecycle king-of-the-hill@1.0.0~build:watch: Failed to exec build:watch script
14 verbose stack Error: king-of-the-hill@1.0.0 build:watch: `tsc -p src/ -w`
14 verbose stack Exit status 1
14 verbose stack     at EventEmitter.<anonymous> (C:\Program Files\nodejs\node_modules\npm\lib\utils\lifecycle.js:255:16)
14 verbose stack     at emitTwo (events.js:106:13)
14 verbose stack     at EventEmitter.emit (events.js:191:7)
14 verbose stack     at ChildProcess.<anonymous> (C:\Program Files\nodejs\node_modules\npm\lib\utils\spawn.js:40:14)
14 verbose stack     at emitTwo (events.js:106:13)
14 verbose stack     at ChildProcess.emit (events.js:191:7)
14 verbose stack     at maybeClose (internal/child_process.js:877:16)
14 verbose stack     at Process.ChildProcess._handle.onexit (internal/child_process.js:226:5)
15 verbose pkgid king-of-the-hill@1.0.0
16 verbose cwd C:\Users\Michael\Documents\git\KingOfTheHill\KingOftheHill.Web
17 error Windows_NT 10.0.14393
18 error argv "C:\\Program Files\\nodejs\\node.exe" "C:\\Program Files\\nodejs\\node_modules\\npm\\bin\\npm-cli.js" "run" "build:watch"
19 error node v6.10.0
20 error npm  v3.10.10
21 error code ELIFECYCLE
22 error king-of-the-hill@1.0.0 build:watch: `tsc -p src/ -w`
22 error Exit status 1
23 error Failed at the king-of-the-hill@1.0.0 build:watch script 'tsc -p src/ -w'.
23 error Make sure you have the latest version of node.js and npm installed.
23 error If you do, this is most likely a problem with the king-of-the-hill package,
23 error not with npm itself.
23 error Tell the author that this fails on your system:
23 error     tsc -p src/ -w
23 error You can get information on how to open an issue for this project with:
23 error     npm bugs king-of-the-hill
23 error Or if that isn't available, you can get their info via:
23 error     npm owner ls king-of-the-hill
23 error There is likely additional logging output above.
24 verbose exit [ 1, true ]
